{
  "type": "service_account",
  "project_id": "api-8954533309050357088-850217",
  "private_key_id": "16d9fecd363eead4a37f01ee9c79a7fbcb2dc06d",
  "private_key": "-----BEGIN PRIVATE KEY-----\nMIIEvQIBADANBgkqhkiG9w0BAQEFAASCBKcwggSjAgEAAoIBAQC8+R2+gDlfbsdg\nYOq1M6vYTka0z2oWAjKQvb+UfJ87CtQkKdaoIwAeZngSAjNISoYDAVmvyVtzf9br\ng+Z4qLpFYBHT+o0h+RpeqhYhCWhV7AMozQ+9JymXAf8iaiKcVDJ4n0zLpMM80VO4\nLofRH+uxVfZ31wHaZtDz+tny6lIibYAZ9LIqrdRN5pzMwg0PggOM0EUv7cOhMRvr\nzByO+0kAvMuUrQEJpCw/i085bRgB/FxlCEVCX4Qv0yOxJ2Ogt9pl2+5UeLGvA+MN\n2vXpcbd7TE9ERI1yUg2PSUj8wRlCEvOX4o3B4XSyCfbzjdGxWG1ajZc7ubwdRRlr\nJXb+ZnLnAgMBAAECggEADAtQowCnJ3b3DCSBMRVfAYVTqliB6W8wa9s8J6mduHSj\nOr7T6Jl6e3WKd5NeU2A0lGJ0peiOhJkESLR6bvxKCvvphvo0HpMy5A+xI1/nH3rQ\nZLxVIXgqhW5iJX5gQFh5cwisK1qP+wNYc6e7jk+bhQz2jYLNom7lKHe3hmz62SjH\ndKdnz79QjMsGvdTLDHSDwZs11D+YhPtYzE+7AOpDU61UQJzaIc0PIZayhlV4OfPM\n/2uWvhLs2ObDCs4k0LZnAj5W3nEe/hL/tzdRWJEQ0k4G2Zlg2scFv+n5XKg2Zzab\nud5fexLwb1tdvHvKQZv1m89lqffvZKPDsRKYpF8eAQKBgQDdmIBcBR3wO12NquDs\nve4R+h7Fma6U+oN4q8TvwXfF9xAT8cbAD3Qg1D37tZFW9TSsYY1o7wYA/2qYCs76\nVF6XFKZ90g7WpNtlQ3W7Vr2D6gyLJGTehp8p9xppw+tGfm+v5M72ndI+kXM0Xhhw\nXIOtOCPYlW6iRvtVYSZj5n7P5wKBgQDaUADnFV/SqPZNiEJGbLGnxlx3Gd4OEl6W\n88DbvY//8kijajOda74dRootox2auBQOMyBEWhyY1Zp/qfMv0aMCb1dTKndARocC\nplsko5gblMB2ILfBybEEofHfnMLCUBvxumzN56o9KEMYpDJY2WJATUDGeNectogD\nms1jMuLlAQKBgFbdIuPvdY7oFoIkC8uBoEMXwtw+o/ruQH8bBjXdpu/JK1pGGlzL\nMgB0cl+rCvAFasJv8xjBKZ9WgBhdlEj4raOXirQjlYF6Wi5VxV7MX7nIE2avu4Kn\nTtkKbiYrkJyvj2Rp0t9FelbgeUJ76CSTf2J1cUfDO/0MyhTr4jqi7e7dAoGBANNE\nZPs8JhU5SdJSMMDyYyJXxhfEQq4ffMZccaC1W+t2znDGT9jh8YNnRkVP+1BFH7N2\nKp27Dr2gyPkOwLbgCv5KPZnQGMNs/S7FSqK0ZnkahP5MP0gcJWC0T9v0Wk2tNL3D\niZPhw0+X7Qalr8tn47sSh8MKIq4XvpyubGC5V/YBAoGACNi6lyi5qP8G1HArMnAd\nzeR+OuegMw/A5aV6hNg0lj40365mKVCu1dV6ZjrGReuZPyrS08tljD483XkBYIJw\nX2la+STGgxh2Ov7plnriS3OCtC9XTWFh/mhweUTGVHp/+YC8S0MMGkJM/T7Ga4aA\nF2RGl/XzGRHCYadqeMIqUcE=\n-----END PRIVATE KEY-----\n",
  "client_email": "sekuramobile@api-8954533309050357088-850217.iam.gserviceaccount.com",
  "client_id": "112460668181186542774",
  "auth_uri": "https://accounts.google.com/o/oauth2/auth",
  "token_uri": "https://oauth2.googleapis.com/token",
  "auth_provider_x509_cert_url": "https://www.googleapis.com/oauth2/v1/certs",
  "client_x509_cert_url": "https://www.googleapis.com/robot/v1/metadata/x509/sekuramobile%40api-8954533309050357088-850217.iam.gserviceaccount.com"
}
