-------------------- Auto-Git Log --------------------
		Wed Jan 08 2020 17:34:06 GMT+0530 (India Standard Time)
------------------------------------------------------

Modified files:


Created files:
* .autogit/logs/log-8-0-2020-17-3-53.txt


Deleted files:


Renamed files:
