-------------------- Auto-Git Log --------------------
		Fri Jan 24 2020 13:28:02 GMT+0530 (India Standard Time)
------------------------------------------------------

Modified files:


Created files:
* .autogit/logs/log-24-0-2020-13-27-48.txt


Deleted files:


Renamed files:
