-------------------- Auto-Git Log --------------------
		Wed Jan 08 2020 20:35:14 GMT+0530 (India Standard Time)
------------------------------------------------------

Modified files:


Created files:
* .autogit/logs/log-8-0-2020-20-5-4.txt


Deleted files:


Renamed files:
