-------------------- Auto-Git Log --------------------
		Fri Jan 24 2020 13:28:18 GMT+0530 (India Standard Time)
------------------------------------------------------

Modified files:


Created files:
* .autogit/logs/log-24-0-2020-13-28-2.txt


Deleted files:


Renamed files:
