-------------------- Auto-Git Log --------------------
		Wed Jan 08 2020 17:03:53 GMT+0530 (India Standard Time)
------------------------------------------------------

Modified files:
* package.json
* yarn.lock


Created files:
* .autogit/logs/log-8-0-2020-15-53-44.txt


Deleted files:


Renamed files:
