{
    "repoName": ".sekura_repo",
    "cafe": "https://cafe.sekura.me",
    "token": "oMztxqTfGtnnSQJQkECNA8r7EJyt5NvNECgX4dxo3hNTxrXL9aMwDc1MrbaL",
    "release": true,
    "max_valid_notify_secs": 3600,
    "showLogs":true
}